<?xml version="1.0" encoding="UTF-8" standalone="no"?>
<!DOCTYPE svg PUBLIC "-//W3C//DTD SVG 20010904//EN"
"http://www.w3.org/TR/2001/REC-SVG-20010904/DTD/svg10.dtd">
<!-- Created with Sodipodi ("http://www.sodipodi.com/") -->
<svg
   xmlns:svg="http://www.w3.org/2000/svg"
   xmlns="http://www.w3.org/2000/svg"
   xmlns:xlink="http://www.w3.org/1999/xlink"
   xmlns:sodipodi="http://sodipodi.sourceforge.net/DTD/sodipodi-0.dtd"
   version="1.0"
   x="0.00000000"
   y="0.00000000"
   width="48pt"
   height="48pt"
   id="svg368"
   sodipodi:version="0.34"
   sodipodi:docname="/home/pmartino/Desktop/bibus.svg"
   sodipodi:docbase="/home/pmartino/Desktop/">
  <sodipodi:namedview
     id="base" />
  <defs
     id="defs3">
    <linearGradient
       id="linearGradient426">
      <stop
         style="stop-color:#ffffff;stop-opacity:1.0000000;"
         offset="0.00000000"
         id="stop427" />
      <stop
         style="stop-color:#ffffff;stop-opacity:0.00000000;"
         offset="1.0000000"
         id="stop428" />
    </linearGradient>
    <linearGradient
       x1="421.93845"
       y1="1046.5377"
       x2="421.93845"
       y2="1055.1342"
       id="linearGradient672"
       xlink:href="#linearGradient378"
       gradientUnits="userSpaceOnUse"
       gradientTransform="matrix(0.859876,0.000000,0.000000,1.162958,20.00000,0.000000)" />
    <linearGradient
       id="linearGradient423">
      <stop
         style="stop-color:#ffffff;stop-opacity:1.0000000;"
         offset="0.00000000"
         id="stop424" />
      <stop
         style="stop-color:#ffffff;stop-opacity:0.00000000;"
         offset="1.0000000"
         id="stop425" />
    </linearGradient>
    <linearGradient
       x1="447.94504"
       y1="996.70807"
       x2="449.50827"
       y2="1053.1703"
       id="linearGradient671"
       xlink:href="#linearGradient378"
       gradientUnits="userSpaceOnUse"
       gradientTransform="scale(0.859876,1.162958)" />
    <linearGradient
       id="linearGradient420">
      <stop
         style="stop-color:#ffd800;stop-opacity:1.0000000;"
         offset="0.00000000"
         id="stop421" />
      <stop
         style="stop-color:#e77900;stop-opacity:1.0000000;"
         offset="1.0000000"
         id="stop422" />
    </linearGradient>
    <linearGradient
       x1="421.21741"
       y1="1061.2163"
       x2="427.93225"
       y2="1001.4115"
       id="linearGradient670"
       xlink:href="#linearGradient531"
       gradientUnits="userSpaceOnUse"
       gradientTransform="matrix(0.859876,0.000000,0.000000,1.162958,20.00000,0.000000)" />
    <linearGradient
       id="linearGradient417">
      <stop
         style="stop-color:#ffd800;stop-opacity:1.0000000;"
         offset="0.00000000"
         id="stop418" />
      <stop
         style="stop-color:#e77900;stop-opacity:1.0000000;"
         offset="1.0000000"
         id="stop419" />
    </linearGradient>
    <linearGradient
       x1="308.06915"
       y1="1060.5986"
       x2="311.63647"
       y2="1001.4117"
       id="linearGradient669"
       xlink:href="#linearGradient531"
       gradientUnits="userSpaceOnUse"
       gradientTransform="matrix(0.859876,0.000000,0.000000,1.162958,120.0000,0.000000)" />
    <linearGradient
       id="linearGradient414">
      <stop
         style="stop-color:#ffd800;stop-opacity:1.0000000;"
         offset="0.00000000"
         id="stop415" />
      <stop
         style="stop-color:#e77900;stop-opacity:1.0000000;"
         offset="1.0000000"
         id="stop416" />
    </linearGradient>
    <linearGradient
       x1="308.06915"
       y1="1060.5986"
       x2="311.63647"
       y2="1001.4117"
       id="linearGradient668"
       xlink:href="#linearGradient531"
       gradientUnits="userSpaceOnUse"
       gradientTransform="matrix(0.859876,0.000000,0.000000,1.162958,120.0000,0.000000)" />
    <linearGradient
       id="linearGradient531">
      <stop
         style="stop-color:#ffd800;stop-opacity:1.0000000;"
         offset="0.00000000"
         id="stop532" />
      <stop
         style="stop-color:#e77900;stop-opacity:1.0000000;"
         offset="1.0000000"
         id="stop533" />
    </linearGradient>
    <linearGradient
       x1="308.06915"
       y1="1060.5986"
       x2="311.63647"
       y2="1001.4117"
       id="linearGradient667"
       xlink:href="#linearGradient531"
       gradientUnits="userSpaceOnUse"
       gradientTransform="matrix(0.859876,0.000000,0.000000,1.162958,120.0000,0.000000)" />
    <linearGradient
       id="linearGradient409">
      <stop
         style="stop-color:#ffffff;stop-opacity:1.0000000;"
         offset="0.00000000"
         id="stop410" />
      <stop
         style="stop-color:#ffffff;stop-opacity:0.00000000;"
         offset="1.0000000"
         id="stop413" />
    </linearGradient>
    <linearGradient
       x1="196.64761"
       y1="1437.2679"
       x2="182.96735"
       y2="1493.8745"
       id="linearGradient666"
       xlink:href="#linearGradient378"
       gradientUnits="userSpaceOnUse"
       gradientTransform="matrix(1.362229,0.000000,0.000000,0.734091,0.000000,140.0000)" />
    <linearGradient
       id="linearGradient406">
      <stop
         style="stop-color:#ffffff;stop-opacity:1.0000000;"
         offset="0.00000000"
         id="stop407" />
      <stop
         style="stop-color:#ffffff;stop-opacity:0.00000000;"
         offset="1.0000000"
         id="stop408" />
    </linearGradient>
    <linearGradient
       x1="211.96373"
       y1="1048.0908"
       x2="212.00743"
       y2="1068.4087"
       id="linearGradient665"
       xlink:href="#linearGradient378"
       gradientUnits="userSpaceOnUse"
       gradientTransform="matrix(0.965146,0.000000,0.000000,1.036113,0.000000,140.0000)" />
    <linearGradient
       id="linearGradient403">
      <stop
         style="stop-color:#ff0b00;stop-opacity:1.0000000;"
         offset="0.00000000"
         id="stop404" />
      <stop
         style="stop-color:#810500;stop-opacity:1.0000000;"
         offset="1.0000000"
         id="stop405" />
    </linearGradient>
    <linearGradient
       x1="222.24202"
       y1="1010.1295"
       x2="227.17216"
       y2="985.21222"
       id="linearGradient664"
       xlink:href="#linearGradient410"
       gradientUnits="userSpaceOnUse"
       gradientTransform="matrix(0.907281,0.000000,0.000000,1.102195,0.000000,140.0000)" />
    <linearGradient
       id="linearGradient400">
      <stop
         style="stop-color:#ffffff;stop-opacity:1.0000000;"
         offset="0.00000000"
         id="stop401" />
      <stop
         style="stop-color:#ffffff;stop-opacity:0.00000000;"
         offset="1.0000000"
         id="stop402" />
    </linearGradient>
    <linearGradient
       x1="140.18318"
       y1="1674.4733"
       x2="147.68718"
       y2="1669.3435"
       id="linearGradient663"
       xlink:href="#linearGradient378"
       gradientUnits="userSpaceOnUse"
       gradientTransform="matrix(1.514725,0.000000,0.000000,0.660186,0.000000,140.0000)"
       spreadMethod="pad" />
    <linearGradient
       id="linearGradient397">
      <stop
         style="stop-color:#ffffff;stop-opacity:1.0000000;"
         offset="0.00000000"
         id="stop398" />
      <stop
         style="stop-color:#ffffff;stop-opacity:0.00000000;"
         offset="1.0000000"
         id="stop399" />
    </linearGradient>
    <linearGradient
       x1="175.50798"
       y1="1674.5470"
       x2="167.51932"
       y2="1666.9850"
       id="linearGradient662"
       xlink:href="#linearGradient378"
       gradientUnits="userSpaceOnUse"
       gradientTransform="matrix(1.514725,0.000000,0.000000,0.660186,0.000000,140.0000)"
       spreadMethod="pad" />
    <linearGradient
       id="linearGradient394">
      <stop
         style="stop-color:#d9d9b4;stop-opacity:1.0000000;"
         offset="0.00000000"
         id="stop395" />
      <stop
         style="stop-color:#a3a36b;stop-opacity:1.0000000;"
         offset="1.0000000"
         id="stop396" />
    </linearGradient>
    <linearGradient
       x1="140.25737"
       y1="1696.1609"
       x2="157.33363"
       y2="1634.5474"
       id="linearGradient661"
       xlink:href="#linearGradient366"
       gradientUnits="userSpaceOnUse"
       gradientTransform="matrix(1.514725,0.000000,0.000000,0.660186,0.000000,140.0000)" />
    <linearGradient
       id="linearGradient391">
      <stop
         style="stop-color:#ff0b00;stop-opacity:1.0000000;"
         offset="0.00000000"
         id="stop392" />
      <stop
         style="stop-color:#810500;stop-opacity:1.0000000;"
         offset="1.0000000"
         id="stop393" />
    </linearGradient>
    <linearGradient
       x1="191.07132"
       y1="1478.1887"
       x2="191.07132"
       y2="1444.9415"
       id="linearGradient660"
       xlink:href="#linearGradient410"
       gradientUnits="userSpaceOnUse"
       gradientTransform="matrix(1.362229,0.000000,0.000000,0.734091,0.000000,140.0000)" />
    <linearGradient
       id="linearGradient388">
      <stop
         style="stop-color:#ffffff;stop-opacity:1.0000000;"
         offset="0.00000000"
         id="stop389" />
      <stop
         style="stop-color:#ffffff;stop-opacity:0.00000000;"
         offset="1.0000000"
         id="stop390" />
    </linearGradient>
    <linearGradient
       x1="143.15617"
       y1="1700.7540"
       x2="164.79172"
       y2="1776.3087"
       id="linearGradient659"
       xlink:href="#linearGradient378"
       gradientUnits="userSpaceOnUse"
       gradientTransform="matrix(1.615039,0.000000,0.000000,0.619180,0.000000,140.0000)" />
    <linearGradient
       id="linearGradient385">
      <stop
         style="stop-color:#d9d9b4;stop-opacity:1.0000000;"
         offset="0.00000000"
         id="stop386" />
      <stop
         style="stop-color:#a3a36b;stop-opacity:1.0000000;"
         offset="1.0000000"
         id="stop387" />
    </linearGradient>
    <linearGradient
       x1="131.91928"
       y1="1448.4674"
       x2="189.13556"
       y2="1448.4674"
       id="linearGradient658"
       xlink:href="#linearGradient366"
       gradientUnits="userSpaceOnUse"
       gradientTransform="matrix(1.514725,0.000000,0.000000,0.660186,0.000000,280.0000)" />
    <linearGradient
       id="linearGradient362">
      <stop
         style="stop-color:#b6e8ff;stop-opacity:1.0000000;"
         offset="0.00000000"
         id="stop363" />
      <stop
         style="stop-color:#2389db;stop-opacity:1.0000000;"
         offset="1.0000000"
         id="stop364" />
    </linearGradient>
    <linearGradient
       x1="205.99301"
       y1="1137.6046"
       x2="211.85287"
       y2="1082.9424"
       id="linearGradient657"
       xlink:href="#linearGradient362"
       gradientUnits="userSpaceOnUse"
       gradientTransform="matrix(1.175962,0.000000,0.000000,0.850368,0.000000,280.0000)"
       spreadMethod="reflect" />
    <linearGradient
       id="linearGradient382">
      <stop
         style="stop-color:#000000;stop-opacity:0.39215687;"
         offset="0.00000000"
         id="stop383" />
      <stop
         style="stop-color:#000000;stop-opacity:0.00000000;"
         offset="1.0000000"
         id="stop384" />
    </linearGradient>
    <radialGradient
       cx="169.88104"
       cy="1794.8795"
       r="44.525272"
       fx="169.88104"
       fy="1794.8795"
       id="radialGradient656"
       xlink:href="#linearGradient443"
       gradientUnits="userSpaceOnUse"
       gradientTransform="scale(1.459845,0.685004)" />
    <linearGradient
       id="linearGradient443">
      <stop
         style="stop-color:#000000;stop-opacity:0.39215687;"
         offset="0.00000000"
         id="stop444" />
      <stop
         style="stop-color:#000000;stop-opacity:0.00000000;"
         offset="1.0000000"
         id="stop445" />
    </linearGradient>
    <radialGradient
       cx="169.88104"
       cy="1794.8795"
       r="44.525272"
       fx="169.88104"
       fy="1794.8795"
       id="radialGradient655"
       xlink:href="#linearGradient443"
       gradientUnits="userSpaceOnUse"
       gradientTransform="scale(1.459845,0.685004)" />
    <linearGradient
       id="linearGradient377">
      <stop
         style="stop-color:#ffffff;stop-opacity:1.0000000;"
         offset="0.00000000"
         id="stop378" />
      <stop
         style="stop-color:#ffffff;stop-opacity:0.00000000;"
         offset="1.0000000"
         id="stop381" />
    </linearGradient>
    <linearGradient
       x1="126.13629"
       y1="1985.5347"
       x2="115.16805"
       y2="1976.4353"
       id="linearGradient654"
       xlink:href="#linearGradient378"
       gradientUnits="userSpaceOnUse"
       gradientTransform="matrix(1.937868,0.000000,0.000000,0.516031,0.000000,140.0000)" />
    <linearGradient
       id="linearGradient374">
      <stop
         style="stop-color:#ffffff;stop-opacity:1.0000000;"
         offset="0.00000000"
         id="stop375" />
      <stop
         style="stop-color:#ffffff;stop-opacity:0.00000000;"
         offset="1.0000000"
         id="stop376" />
    </linearGradient>
    <linearGradient
       x1="250.28658"
       y1="868.11609"
       x2="252.10155"
       y2="885.64746"
       id="linearGradient653"
       xlink:href="#linearGradient378"
       gradientUnits="userSpaceOnUse"
       gradientTransform="matrix(0.834058,0.000000,0.000000,1.198958,0.000000,132.0000)" />
    <linearGradient
       id="linearGradient410">
      <stop
         style="stop-color:#ff0b00;stop-opacity:1.0000000;"
         offset="0.00000000"
         id="stop411" />
      <stop
         style="stop-color:#810500;stop-opacity:1.0000000;"
         offset="1.0000000"
         id="stop412" />
    </linearGradient>
    <linearGradient
       x1="277.49091"
       y1="794.37476"
       x2="286.71185"
       y2="776.55743"
       id="linearGradient652"
       xlink:href="#linearGradient410"
       gradientUnits="userSpaceOnUse"
       gradientTransform="matrix(0.747426,0.000000,0.000000,1.337925,0.250000,132.0000)" />
    <linearGradient
       id="linearGradient369">
      <stop
         style="stop-color:#ffffff;stop-opacity:1.0000000;"
         offset="0.00000000"
         id="stop370" />
      <stop
         style="stop-color:#ffffff;stop-opacity:0.00000000;"
         offset="1.0000000"
         id="stop373" />
    </linearGradient>
    <linearGradient
       x1="241.40817"
       y1="998.69550"
       x2="243.66159"
       y2="1051.3652"
       id="linearGradient651"
       xlink:href="#linearGradient378"
       gradientUnits="userSpaceOnUse"
       gradientTransform="matrix(0.991342,0.000000,0.000000,1.008734,0.000000,140.0000)" />
    <linearGradient
       id="linearGradient366">
      <stop
         style="stop-color:#d9d9b4;stop-opacity:1.0000000;"
         offset="0.00000000"
         id="stop367" />
      <stop
         style="stop-color:#a3a36b;stop-opacity:1.0000000;"
         offset="1.0000000"
         id="stop368" />
    </linearGradient>
    <linearGradient
       x1="121.73791"
       y1="1726.7207"
       x2="116.15244"
       y2="1719.0306"
       id="linearGradient650"
       xlink:href="#linearGradient366"
       gradientUnits="userSpaceOnUse"
       gradientTransform="matrix(1.958518,0.000000,0.000000,0.510590,0.000000,280.0000)" />
    <linearGradient
       id="linearGradient378">
      <stop
         style="stop-color:#ffffff;stop-opacity:1.0000000;"
         offset="0.00000000"
         id="stop379" />
      <stop
         style="stop-color:#ffffff;stop-opacity:0.00000000;"
         offset="1.0000000"
         id="stop380" />
    </linearGradient>
    <linearGradient
       x1="433.22763"
       y1="408.78055"
       x2="504.90137"
       y2="408.78055"
       id="linearGradient649"
       xlink:href="#linearGradient378"
       gradientUnits="userSpaceOnUse"
       gradientTransform="matrix(0.448461,0.000000,0.000000,2.229848,0.000000,280.0000)" />
    <linearGradient
       id="linearGradient370">
      <stop
         style="stop-color:#4dad2c;stop-opacity:1.0000000;"
         offset="0.00000000"
         id="stop371" />
      <stop
         style="stop-color:#e3ff86;stop-opacity:1.0000000;"
         offset="1.0000000"
         id="stop372" />
    </linearGradient>
    <linearGradient
       x1="296.13690"
       y1="768.03760"
       x2="230.01286"
       y2="833.85461"
       id="linearGradient648"
       xlink:href="#linearGradient370"
       gradientUnits="userSpaceOnUse"
       gradientTransform="matrix(0.880685,0.000000,0.000000,1.135480,0.000000,280.0000)" />
  </defs>
  <g
     transform="matrix(0.410385,0,0,0.445296,-75.99184,-510.218)"
     id="g619"
     style="font-size:12;">
    <path
       d="M 202.46850,1162.0158 L 248.53149,1151.3858 L 262.70472,1154.9291 L 259.16141,1211.6220 L 216.64173,1229.3386 L 202.46850,1218.7087 L 202.46850,1162.0158 z "
       style="fill:url(#linearGradient648);fill-opacity:1.0000000;fill-rule:evenodd;stroke:#000000;stroke-width:1.0000000px;stroke-linecap:butt;stroke-linejoin:miter;stroke-opacity:1.0000000"
       id="path620" />
    <path
       d="M 203.92858,1163.2143 L 203.92857,1217.5000 L 216.78571,1227.1429 L 216.78572,1168.2143 C 210.20191,1168.1386 205.38587,1165.0577 203.92858,1163.2143 z "
       style="fill:url(#linearGradient649);fill-opacity:1.0000000;fill-rule:evenodd;stroke:none;stroke-width:1.0000000px;stroke-linecap:butt;stroke-linejoin:miter;stroke-opacity:1.0000000"
       id="path621" />
    <path
       d="M 207.05602,1162.3463 C 208.96933,1164.2867 212.12007,1166.0502 216.50825,1166.2228 L 259.27732,1154.5339 L 250.06135,1152.3169 L 207.05602,1162.3463 z "
       style="fill:url(#linearGradient650);fill-opacity:1.0000000;fill-rule:evenodd;stroke:#000000;stroke-width:1.0000000;stroke-linecap:round;stroke-linejoin:round;stroke-miterlimit:4.0000000;stroke-opacity:0.19607843"
       id="path622" />
    <path
       d="M 218.75000,1168.2500 L 260.50000,1156.7500 L 259.25000,1181.2500 C 257.83333,1208.0833 228.16667,1162.4167 218.75000,1197.5000 L 218.75000,1168.2500 z "
       style="fill:url(#linearGradient651);fill-opacity:1.0000000;fill-rule:evenodd;stroke:none;stroke-width:1.0000000px;stroke-linecap:butt;stroke-linejoin:miter;stroke-opacity:1.0000000"
       id="path623" />
    <path
       d="M 202.65931,1172.2908 C 206.19485,1175.7085 211.32138,1178.2422 216.62468,1178.1244 L 216.44790,1198.2770 C 211.79278,1197.8056 205.36989,1195.3897 202.83609,1191.5595 L 202.65931,1172.2908 z "
       style="fill:url(#linearGradient652);fill-opacity:1.0000000;fill-rule:evenodd;stroke:#000000;stroke-width:1.0000000;stroke-linecap:round;stroke-linejoin:round;stroke-miterlimit:4.0000000;stroke-opacity:0.39215687"
       id="path624" />
    <path
       d="M 203.85355,1175.1036 C 206.02022,1177.6036 211.42172,1179.8081 215.08839,1179.5581 C 215.08839,1183.2247 215.74779,1188.4663 213.95711,1189.6716 C 210.56279,1191.9561 208.66682,1179.3661 204.00000,1185.7500 C 203.83333,1182.3333 204.02022,1178.5203 203.85355,1175.1036 z "
       style="fill:url(#linearGradient653);fill-opacity:1.0000000;fill-rule:evenodd;stroke:none;stroke-width:1.0000000px;stroke-linecap:butt;stroke-linejoin:miter;stroke-opacity:1.0000000"
       id="path625" />
    <path
       d="M 207.05602,1162.3463 C 208.96933,1164.2867 212.12007,1166.0502 216.50825,1166.2228 L 259.27732,1154.5339 L 250.06135,1152.3169 L 207.05602,1162.3463 z "
       style="fill:url(#linearGradient654);fill-opacity:1.0000000;fill-rule:evenodd;stroke:none;stroke-width:1.0000000;stroke-linecap:round;stroke-linejoin:round;stroke-miterlimit:4.0000000;stroke-opacity:0.19607843"
       id="path626" />
  </g>
  <g
     transform="matrix(0.410385,0,0,0.445296,-75.99184,-510.218)"
     id="g627"
     style="font-size:12;">
    <path
       d="M 313.00000 1229.5000 A 65.000000 30.500000 0 1 1  183.00000,1229.5000 A 65.000000 30.500000 0 1 1  313.00000 1229.5000 z"
       transform="matrix(0.576778,-0.124421,-2.666374e-2,0.738383,147.4919,344.5136)"
       style="fill:url(#radialGradient655);fill-opacity:1.0000000;stroke:none;stroke-width:1.0000000;stroke-linecap:round;stroke-linejoin:round;stroke-miterlimit:4.0000000;stroke-dashoffset:0.00000000;stroke-opacity:0.39215687"
       id="path628" />
    <path
       d="M 313.00000 1229.5000 A 65.000000 30.500000 0 1 1  183.00000,1229.5000 A 65.000000 30.500000 0 1 1  313.00000 1229.5000 z"
       transform="matrix(0.989851,-0.142114,0.122312,0.851920,-145.3651,225.5584)"
       style="fill:url(#radialGradient656);fill-opacity:1.0000000;stroke:none;stroke-width:1.0000000;stroke-linecap:round;stroke-linejoin:round;stroke-miterlimit:4.0000000;stroke-dashoffset:0.00000000;stroke-opacity:0.39215687"
       id="path629" />
  </g>
  <g
     id="g736"
     transform="matrix(6.494488e-2,0,0,6.714605e-2,25.38665,26.53232)">
    <defs
       id="defs550">
      <linearGradient
         id="linearGradient642">
        <stop
           style="stop-color:#00ff00;stop-opacity:0.678431;"
           offset="0.000000"
           id="stop643" />
        <stop
           style="stop-color:#ffff00;stop-opacity:0.968627;"
           offset="1.000000"
           id="stop644" />
      </linearGradient>
      <linearGradient
         id="linearGradient636">
        <stop
           style="stop-color:#00ffff;stop-opacity:1;"
           offset="0.000000"
           id="stop637" />
        <stop
           style="stop-color:#ff8aff;stop-opacity:1;"
           offset="1.000000"
           id="stop638" />
      </linearGradient>
      <linearGradient
         xlink:href="#linearGradient636"
         id="linearGradient639"
         x1="0.37323773"
         y1="0.35937506"
         x2="0.64788717"
         y2="-0.03124995"
         gradientUnits="objectBoundingBox"
         spreadMethod="reflect" />
      <linearGradient
         xlink:href="#linearGradient642"
         id="linearGradient641"
         x1="0.35064930"
         y1="0.45312661"
         x2="0.25974023"
         y2="0.53906250"
         gradientUnits="objectBoundingBox"
         spreadMethod="reflect" />
      <linearGradient
         xlink:href="#linearGradient636"
         id="linearGradient645"
         x1="0.37323788"
         y1="0.35937548"
         x2="0.64788729"
         y2="-0.03124950"
         gradientUnits="objectBoundingBox"
         spreadMethod="reflect" />
    </defs>
    <sodipodi:namedview
       id="namedview747"
       showgrid="true" />
    <path
       sodipodi:type="arc"
       style="fill-rule:evenodd;stroke:#000000;fill:none;fill-opacity:1;stroke-opacity:1;stroke-width:1pt;stroke-linejoin:miter;stroke-linecap:butt;"
       id="path573"
       d="M 486.7074 252.8307 A 224.6994 228.515 0 1 0 37.30859 252.8307 A 224.6994 228.515 0 1 0  486.7074 252.8307 z"
       sodipodi:cx="262.007996"
       sodipodi:cy="252.830658"
       sodipodi:rx="224.699402"
       sodipodi:ry="228.515045"
       transform="matrix(1.030189,0.000000,0.000000,1.005566,-20.62849,-4.374924)" />
    <path
       sodipodi:type="arc"
       style="fill-rule:evenodd;stroke:none;fill:#9b9f9f;fill-opacity:1;stroke-opacity:1;stroke-width:1pt;stroke-linejoin:miter;stroke-linecap:butt;"
       id="path574"
       d="M 518.0805 299.4664 A 211.1326 206.4691 0 1 0 95.81523 299.4664 A 211.1326 206.4691 0 1 0  518.0805 299.4664 z"
       sodipodi:cx="306.947876"
       sodipodi:cy="299.466400"
       sodipodi:rx="211.132645"
       sodipodi:ry="206.469070"
       transform="matrix(1.066265,0.000000,0.000000,1.088295,-78.42259,-76.04500)" />
    <g
       id="g580"
       transform="matrix(-1.000000,1.224606e-16,-1.224606e-16,-1.000000,499.5483,495.8787)">
      <path
         sodipodi:type="arc"
         style="font-size:12;fill:url(#linearGradient645);fill-rule:evenodd;stroke-width:1pt;"
         id="path581"
         d="M 110.1839 258.0872 A 188.6627 182.3033 0 0 1 207.3779 140.8133 L 292.9572 303.282z"
         sodipodi:cx="292.957153"
         sodipodi:cy="303.282043"
         sodipodi:rx="188.662704"
         sodipodi:ry="182.303299"
         transform="matrix(-1.158207,1.395124e-16,-1.440302e-16,-1.156878,591.6208,609.2519)"
         sodipodi:start="3.392115"
         sodipodi:end="4.241577" />
      <path
         sodipodi:type="arc"
         style="font-size:12;fill:url(#linearGradient641);fill-rule:evenodd;stroke-width:1pt;"
         id="path582"
         d="M 127.8039 215.1531 A 188.6627 182.3033 0 0 1 167.8656 166.8133 L 292.9572 303.282z"
         sodipodi:cx="292.957153"
         sodipodi:cy="303.282043"
         sodipodi:rx="188.662704"
         sodipodi:ry="182.303299"
         transform="matrix(-1.158207,1.395124e-16,-1.440302e-16,-1.156878,591.6208,607.6696)"
         sodipodi:start="3.646149"
         sodipodi:end="3.987512" />
    </g>
    <g
       id="g577">
      <path
         sodipodi:type="arc"
         style="font-size:12;fill:url(#linearGradient645);fill-rule:evenodd;stroke-width:1pt;"
         id="path651"
         d="M 110.1839 258.0872 A 188.6627 182.3033 0 0 1 207.3779 140.8133 L 292.9572 303.282z"
         sodipodi:cx="292.957153"
         sodipodi:cy="303.282043"
         sodipodi:rx="188.662704"
         sodipodi:ry="182.303299"
         transform="matrix(-1.158207,1.395124e-16,-1.440302e-16,-1.156878,591.6208,609.2519)"
         sodipodi:start="3.392115"
         sodipodi:end="4.241577" />
      <path
         sodipodi:type="arc"
         style="font-size:12;fill:url(#linearGradient641);fill-rule:evenodd;stroke-width:1pt;"
         id="path652"
         d="M 127.8039 215.1531 A 188.6627 182.3033 0 0 1 167.8656 166.8133 L 292.9572 303.282z"
         sodipodi:cx="292.957153"
         sodipodi:cy="303.282043"
         sodipodi:rx="188.662704"
         sodipodi:ry="182.303299"
         transform="matrix(-1.158207,1.395124e-16,-1.440302e-16,-1.156878,591.6208,607.6696)"
         sodipodi:start="3.646149"
         sodipodi:end="3.987512" />
    </g>
    <path
       sodipodi:type="arc"
       style="fill-rule:evenodd;stroke:#000000;fill:#ffffff;fill-opacity:1;stroke-opacity:1;stroke-width:1pt;stroke-linejoin:miter;stroke-linecap:butt;"
       id="path575"
       d="M 278.9664 254.1026 A 30.52521 29.67729 0 1 0 217.916 254.1026 A 30.52521 29.67729 0 1 0  278.9664 254.1026 z"
       sodipodi:cx="248.441223"
       sodipodi:cy="254.102554"
       sodipodi:rx="30.525208"
       sodipodi:ry="29.677292"
       transform="matrix(1.194444,0.000000,0.000000,1.185714,-44.06837,-53.54984)" />
    <path
       sodipodi:type="arc"
       style="fill-rule:evenodd;stroke:#000000;fill:none;fill-opacity:1;stroke-opacity:1;stroke-width:1pt;stroke-linejoin:miter;stroke-linecap:butt;"
       id="path579"
       d="M 267.0955 254.5265 A 13.56676 13.99071 0 1 0 239.962 254.5265 A 13.56676 13.99071 0 1 0  267.0955 254.5265 z"
       sodipodi:cx="253.528763"
       sodipodi:cy="254.526505"
       sodipodi:rx="13.566757"
       sodipodi:ry="13.990707"
       transform="matrix(1.843750,0.000000,0.000000,1.787879,-214.3388,-207.3196)" />
    <path
       sodipodi:type="arc"
       style="fill-rule:evenodd;stroke:none;fill:#ffffff;fill-opacity:1;stroke-opacity:1;stroke-width:1pt;stroke-linejoin:miter;stroke-linecap:butt;"
       id="path599"
       d="M 267.0955 254.5265 A 13.56676 13.99071 0 1 0 239.962 254.5265 A 13.56676 13.99071 0 1 0  267.0955 254.5265 z"
       sodipodi:cx="253.528763"
       sodipodi:cy="254.526505"
       sodipodi:rx="13.566757"
       sodipodi:ry="13.990707"
       transform="matrix(1.843750,0.000000,0.000000,1.787879,-214.3388,-207.3196)" />
    <metadata
       id="metadata625">
      <rdf:RDF
         xmlns="http://web.resource.org/cc/"
         xmlns:dc="http://purl.org/dc/elements/1.1/"
         xmlns:rdf="http://www.w3.org/1999/02/22-rdf-syntax-ns#">
        <ns:Work
           rdf:about="">
          <dc:title>Clipart by Nicu Buculei - antenna</dc:title>
          <dc:description />
          <dc:subject />
          <dc:publisher>
            <ns:Agent
               rdf:about="http://www.openclipart.org">
              <dc:title>Nicu Buculei</dc:title>
            </ns:Agent>
          </dc:publisher>
          <dc:creator>
            <ns:Agent
               rdf:about="">
              <dc:title>Nicu Buculei</dc:title>
            </ns:Agent>
          </dc:creator>
          <dc:rights>
            <ns:Agent
               rdf:about="">
              <dc:title>Nicu Buculei</dc:title>
            </ns:Agent>
          </dc:rights>
          <dc:date />
          <dc:format>image/svg+xml</dc:format>
          <dc:type
             rdf:resource="http://purl.org/dc/dcmitype/StillImage" />
          <ns:license
             rdf:resource="http://web.resource.org/cc/PublicDomain">
            <dc:date />
          </ns:license>
          <dc:language>en</dc:language>
        </ns:Work>
        <ns:License
           rdf:about="http://web.resource.org/cc/PublicDomain">
          <ns:permits
             rdf:resource="http://web.resource.org/cc/Reproduction" />
          <ns:permits
             rdf:resource="http://web.resource.org/cc/Distribution" />
          <ns:permits
             rdf:resource="http://web.resource.org/cc/DerivativeWorks" />
        </ns:License>
      </rdf:RDF>
    </metadata>
  </g>
  <g
     transform="matrix(0.410385,0,0,0.445296,-75.64281,-509.2712)"
     id="g630"
     style="font-size:12;">
    <path
       d="M 199.42519,1218.2087 L 252.57480,1196.9488 L 288.00787,1218.2087 L 288.00787,1232.3819 L 234.85826,1260.7284 L 199.42519,1232.3819 L 199.42519,1218.2087 z "
       style="fill:url(#linearGradient657);fill-opacity:1.0000000;fill-rule:evenodd;stroke:#000000;stroke-width:1.0000000px;stroke-linecap:butt;stroke-linejoin:miter;stroke-opacity:1.0000000"
       id="path631" />
    <path
       d="M 287.32142,1219.6429 L 234.82142,1246.4286 L 200.17857,1220.8929 L 199.82142,1229.8214 L 235.00000,1257.8571 L 287.50000,1230.3571 L 287.32142,1219.6429 z "
       style="fill:url(#linearGradient658);fill-opacity:1.0000000;fill-rule:evenodd;stroke:#000000;stroke-width:2.0000000;stroke-linecap:round;stroke-linejoin:round;stroke-miterlimit:4.0000000;stroke-opacity:0.19607843"
       id="path632" />
    <path
       d="M 203.64675,1218.8282 L 252.43713,1198.6756 L 284.61048,1218.4746 C 278.36437,1221.6566 269.06934,1226.1063 263.39728,1226.9598 C 237.96201,1230.7875 246.07315,1213.8785 203.64675,1218.8282 z "
       style="fill:url(#linearGradient659);fill-opacity:1.0000000;fill-rule:evenodd;stroke:none;stroke-width:1.0000000px;stroke-linecap:butt;stroke-linejoin:miter;stroke-opacity:1.0000000"
       id="path633" />
    <path
       d="M 252.25000,1200.7500 L 236.75000,1207.2500 L 265.50000,1224.5000 L 280.50000,1218.0000 L 252.25000,1200.7500 z "
       style="fill:url(#linearGradient660);fill-opacity:1.0000000;fill-rule:evenodd;stroke:#000000;stroke-width:1.0000000;stroke-linecap:round;stroke-linejoin:round;stroke-miterlimit:4.0000000;stroke-opacity:0.39215687"
       id="path634" />
    <path
       d="M 287.32142,1219.6429 L 234.82142,1246.4286 L 200.17857,1220.8929 L 199.82142,1229.8214 L 235.00000,1257.8571 L 287.50000,1230.3571 L 287.32142,1219.6429 z "
       style="fill:url(#linearGradient661);fill-opacity:1.0000000;fill-rule:evenodd;stroke:#000000;stroke-width:1.0000000;stroke-linecap:round;stroke-linejoin:round;stroke-miterlimit:4.0000000;stroke-opacity:0.19607843"
       id="path635" />
    <path
       d="M 287.32142,1219.6429 L 234.82142,1246.4286 L 235.00000,1257.8571 L 287.50000,1230.3571 L 287.32142,1219.6429 z "
       style="fill:url(#linearGradient662);fill-opacity:1.0000000;fill-rule:evenodd;stroke:none;stroke-width:2.0000000;stroke-linecap:round;stroke-linejoin:round;stroke-miterlimit:4.0000000;stroke-opacity:0.19607843"
       id="path636" />
    <path
       d="M 234.82142,1246.4286 L 200.17857,1220.8929 L 199.82142,1229.8214 L 235.00000,1257.8571 L 234.82142,1246.4286 z "
       style="fill:url(#linearGradient663);fill-opacity:1.0000000;fill-rule:evenodd;stroke:none;stroke-width:2.0000000;stroke-linecap:round;stroke-linejoin:round;stroke-miterlimit:4.0000000;stroke-opacity:0.19607843"
       id="path637" />
    <path
       d="M 203.48450,1227.1864 C 206.84137,1229.9615 210.19824,1232.7367 213.55511,1235.5118 C 209.33070,1236.9173 208.60629,1252.3229 199.38188,1253.2284 C 200.95078,1247.9567 201.01968,1244.9351 201.08858,1240.9134 C 198.65747,1242.3917 194.72637,1243.6201 192.29527,1242.5984 C 199.02501,1237.7111 199.75476,1228.0737 203.48450,1227.1864 z "
       style="fill:url(#linearGradient664);fill-opacity:1.0000000;fill-rule:evenodd;stroke:#000000;stroke-width:1.0000000;stroke-linecap:round;stroke-linejoin:round;stroke-miterlimit:4.0000000;stroke-opacity:1.0000000"
       id="path638" />
    <path
       d="M 202.49142,1229.5508 C 201.54850,1230.1895 200.40585,1233.9720 199.05056,1236.6826 C 202.23254,1233.5595 203.40000,1243.8346 206.47518,1243.5768 C 208.29695,1243.4241 209.39506,1239.2452 210.32137,1236.7684 C 211.17905,1234.4751 203.95885,1228.5568 202.49142,1229.5508 z "
       style="fill:url(#linearGradient665);fill-opacity:1.0000000;fill-rule:evenodd;stroke:none;stroke-width:1.0000000px;stroke-linecap:butt;stroke-linejoin:miter;stroke-opacity:1.0000000"
       id="path639" />
    <path
       d="M 252.12500,1202.2500 L 239.62500,1207.3750 C 251.58333,1203.7083 258.37943,1213.3178 265.25000,1218.8750 C 270.00781,1222.7233 280.08333,1217.9167 273.12500,1214.7500 L 252.12500,1202.2500 z "
       style="fill:url(#linearGradient666);fill-opacity:1.0000000;fill-rule:evenodd;stroke:none;stroke-width:1.2500000;stroke-linecap:round;stroke-linejoin:round;stroke-miterlimit:4.0000000;stroke-opacity:0.39215687"
       id="path640" />
  </g>
  <g
     transform="matrix(0.410385,0,0,0.445296,-126.3215,-507.384)"
     id="g641"
     style="font-size:12;">
    <path
       d="M 373.00911,1225.0351 C 373.00909,1222.7003 373.99363,1220.6948 375.96275,1219.0184 C 377.93181,1217.3422 380.28768,1216.5041 383.03037,1216.5041 C 385.80816,1216.5041 388.18161,1217.3422 390.15073,1219.0184 C 392.11978,1220.6948 393.10433,1222.7003 393.10437,1225.0351 C 393.10433,1227.3999 392.11978,1229.4204 390.15073,1231.0967 C 388.18161,1232.7729 385.80816,1233.6111 383.03037,1233.6111 C 380.28768,1233.6111 377.93181,1232.7729 375.96275,1231.0967 C 373.99363,1229.4204 373.00909,1227.3999 373.00911,1225.0351 M 361.98573,1167.1137 C 366.34585,1166.0960 370.49499,1165.3326 374.43319,1164.8237 C 378.37134,1164.3149 382.18645,1164.0605 385.87851,1164.0604 C 394.73937,1164.0605 401.54327,1165.7217 406.29023,1169.0443 C 411.03709,1172.3371 413.41054,1177.0516 413.41060,1183.1879 C 413.41054,1189.2346 411.10741,1194.0089 406.50121,1197.5112 C 401.93005,1200.9835 395.33714,1202.9891 386.72241,1203.5278 L 386.72241,1212.7324 L 379.39107,1212.7324 L 379.39107,1199.3072 C 384.31376,1198.0201 387.91790,1195.9996 390.20348,1193.2456 C 392.48898,1190.4918 393.63176,1186.8100 393.63180,1182.2001 C 393.63176,1177.8897 392.55931,1174.6420 390.41445,1172.4568 C 388.26951,1170.2417 385.10491,1169.1342 380.92063,1169.1341 C 377.05275,1169.1342 374.06396,1170.1220 371.95424,1172.0976 C 369.87965,1174.0733 368.68413,1177.0068 368.36769,1180.8981 L 361.98573,1180.8981 L 361.98573,1167.1137"
       style="font-size:99.664238;font-style:normal;font-variant:normal;font-weight:bold;font-stretch:normal;fill:url(#linearGradient667);fill-opacity:1.0000000;stroke:#000000;stroke-width:7.5000000;stroke-linecap:round;stroke-linejoin:round;stroke-miterlimit:4.0000000;stroke-opacity:0.078431375;font-family:Bitstream Vera Serif;text-anchor:start;writing-mode:lr-tb"
       id="path642" />
    <path
       d="M 373.00911,1225.0351 C 373.00909,1222.7003 373.99363,1220.6948 375.96275,1219.0184 C 377.93181,1217.3422 380.28768,1216.5041 383.03037,1216.5041 C 385.80816,1216.5041 388.18161,1217.3422 390.15073,1219.0184 C 392.11978,1220.6948 393.10433,1222.7003 393.10437,1225.0351 C 393.10433,1227.3999 392.11978,1229.4204 390.15073,1231.0967 C 388.18161,1232.7729 385.80816,1233.6111 383.03037,1233.6111 C 380.28768,1233.6111 377.93181,1232.7729 375.96275,1231.0967 C 373.99363,1229.4204 373.00909,1227.3999 373.00911,1225.0351 M 361.98573,1167.1137 C 366.34585,1166.0960 370.49499,1165.3326 374.43319,1164.8237 C 378.37134,1164.3149 382.18645,1164.0605 385.87851,1164.0604 C 394.73937,1164.0605 401.54327,1165.7217 406.29023,1169.0443 C 411.03709,1172.3371 413.41054,1177.0516 413.41060,1183.1879 C 413.41054,1189.2346 411.10741,1194.0089 406.50121,1197.5112 C 401.93005,1200.9835 395.33714,1202.9891 386.72241,1203.5278 L 386.72241,1212.7324 L 379.39107,1212.7324 L 379.39107,1199.3072 C 384.31376,1198.0201 387.91790,1195.9996 390.20348,1193.2456 C 392.48898,1190.4918 393.63176,1186.8100 393.63180,1182.2001 C 393.63176,1177.8897 392.55931,1174.6420 390.41445,1172.4568 C 388.26951,1170.2417 385.10491,1169.1342 380.92063,1169.1341 C 377.05275,1169.1342 374.06396,1170.1220 371.95424,1172.0976 C 369.87965,1174.0733 368.68413,1177.0068 368.36769,1180.8981 L 361.98573,1180.8981 L 361.98573,1167.1137"
       style="font-size:99.664238;font-style:normal;font-variant:normal;font-weight:bold;font-stretch:normal;fill:url(#linearGradient668);fill-opacity:1.0000000;stroke:#000000;stroke-width:5.0000000;stroke-linecap:round;stroke-linejoin:round;stroke-miterlimit:4.0000000;stroke-opacity:0.11764706;font-family:Bitstream Vera Serif;text-anchor:start;writing-mode:lr-tb"
       id="path643" />
    <path
       d="M 373.00911,1225.0351 C 373.00909,1222.7003 373.99363,1220.6948 375.96275,1219.0184 C 377.93181,1217.3422 380.28768,1216.5041 383.03037,1216.5041 C 385.80816,1216.5041 388.18161,1217.3422 390.15073,1219.0184 C 392.11978,1220.6948 393.10433,1222.7003 393.10437,1225.0351 C 393.10433,1227.3999 392.11978,1229.4204 390.15073,1231.0967 C 388.18161,1232.7729 385.80816,1233.6111 383.03037,1233.6111 C 380.28768,1233.6111 377.93181,1232.7729 375.96275,1231.0967 C 373.99363,1229.4204 373.00909,1227.3999 373.00911,1225.0351 M 361.98573,1167.1137 C 366.34585,1166.0960 370.49499,1165.3326 374.43319,1164.8237 C 378.37134,1164.3149 382.18645,1164.0605 385.87851,1164.0604 C 394.73937,1164.0605 401.54327,1165.7217 406.29023,1169.0443 C 411.03709,1172.3371 413.41054,1177.0516 413.41060,1183.1879 C 413.41054,1189.2346 411.10741,1194.0089 406.50121,1197.5112 C 401.93005,1200.9835 395.33714,1202.9891 386.72241,1203.5278 L 386.72241,1212.7324 L 379.39107,1212.7324 L 379.39107,1199.3072 C 384.31376,1198.0201 387.91790,1195.9996 390.20348,1193.2456 C 392.48898,1190.4918 393.63176,1186.8100 393.63180,1182.2001 C 393.63176,1177.8897 392.55931,1174.6420 390.41445,1172.4568 C 388.26951,1170.2417 385.10491,1169.1342 380.92063,1169.1341 C 377.05275,1169.1342 374.06396,1170.1220 371.95424,1172.0976 C 369.87965,1174.0733 368.68413,1177.0068 368.36769,1180.8981 L 361.98573,1180.8981 L 361.98573,1167.1137"
       style="font-size:99.664238;font-style:normal;font-variant:normal;font-weight:bold;font-stretch:normal;fill:url(#linearGradient669);fill-opacity:1.0000000;stroke:#000000;stroke-width:2.0000000;stroke-linecap:round;stroke-linejoin:round;stroke-miterlimit:4.0000000;stroke-opacity:1.0000000;font-family:Bitstream Vera Serif;text-anchor:start;writing-mode:lr-tb"
       id="path644" />
    <path
       d="M 373.00911,1225.0351 C 373.00909,1222.7003 373.99363,1220.6948 375.96275,1219.0184 C 377.93181,1217.3422 380.28768,1216.5041 383.03037,1216.5041 C 385.80816,1216.5041 388.18161,1217.3422 390.15073,1219.0184 C 392.11978,1220.6948 393.10433,1222.7003 393.10437,1225.0351 C 393.10433,1227.3999 392.11978,1229.4204 390.15073,1231.0967 C 388.18161,1232.7729 385.80816,1233.6111 383.03037,1233.6111 C 380.28768,1233.6111 377.93181,1232.7729 375.96275,1231.0967 C 373.99363,1229.4204 373.00909,1227.3999 373.00911,1225.0351 M 361.98573,1167.1137 C 366.34585,1166.0960 370.49499,1165.3326 374.43319,1164.8237 C 378.37134,1164.3149 382.18645,1164.0605 385.87851,1164.0604 C 394.73937,1164.0605 401.54327,1165.7217 406.29023,1169.0443 C 411.03709,1172.3371 413.41054,1177.0516 413.41060,1183.1879 C 413.41054,1189.2346 411.10741,1194.0089 406.50121,1197.5112 C 401.93005,1200.9835 395.33714,1202.9891 386.72241,1203.5278 L 386.72241,1212.7324 L 379.39107,1212.7324 L 379.39107,1199.3072 C 384.31376,1198.0201 387.91790,1195.9996 390.20348,1193.2456 C 392.48898,1190.4918 393.63176,1186.8100 393.63180,1182.2001 C 393.63176,1177.8897 392.55931,1174.6420 390.41445,1172.4568 C 388.26951,1170.2417 385.10491,1169.1342 380.92063,1169.1341 C 377.05275,1169.1342 374.06396,1170.1220 371.95424,1172.0976 C 369.87965,1174.0733 368.68413,1177.0068 368.36769,1180.8981 L 361.98573,1180.8981 L 361.98573,1167.1137"
       style="font-size:99.664238;font-style:normal;font-variant:normal;font-weight:bold;font-stretch:normal;fill:url(#linearGradient670);fill-opacity:1.0000000;stroke:none;stroke-width:3.7500005;stroke-linecap:round;stroke-linejoin:round;stroke-miterlimit:4.0000000;stroke-opacity:0.39215687;font-family:Bitstream Vera Serif;text-anchor:start;writing-mode:lr-tb"
       id="path645" />
    <path
       d="M 374.81250,1166.7813 C 369.53217,1168.0257 361.40745,1166.9710 364.00000,1174.7813 C 364.06187,1184.6725 368.30894,1173.4815 370.96875,1170.3750 C 379.01591,1163.9475 395.11583,1167.3017 395.20781,1179.2195 C 397.28673,1188.7708 391.16468,1198.7934 381.40625,1200.6875 C 379.33266,1205.7531 383.90562,1216.6578 384.71875,1206.7188 C 383.38833,1198.7582 393.87366,1202.1104 398.33749,1199.3856 C 410.14323,1197.0731 415.94068,1181.0255 407.12617,1172.4310 C 398.49640,1164.5968 385.50790,1165.9824 374.81250,1166.7813 z "
       style="font-size:99.664238;font-style:normal;font-variant:normal;font-weight:bold;font-stretch:normal;fill:url(#linearGradient671);fill-opacity:1.0000000;stroke:none;stroke-width:3.7500005;stroke-linecap:round;stroke-linejoin:round;stroke-miterlimit:4.0000000;stroke-opacity:0.39215687;font-family:Bitstream Vera Serif;text-anchor:start;writing-mode:lr-tb"
       id="path646" />
    <path
       d="M 379.90625,1219.0313 C 372.58143,1220.9716 374.63526,1231.4888 381.84726,1231.3945 C 388.35858,1233.3909 394.85583,1223.8394 387.94684,1220.0306 C 385.62708,1218.3224 382.59093,1218.3791 379.90625,1219.0313 z "
       style="font-size:99.664238;font-style:normal;font-variant:normal;font-weight:bold;font-stretch:normal;fill:url(#linearGradient672);fill-opacity:1.0000000;stroke:none;stroke-width:3.7500005;stroke-linecap:round;stroke-linejoin:round;stroke-miterlimit:4.0000000;stroke-opacity:0.39215687;font-family:Bitstream Vera Serif;text-anchor:start;writing-mode:lr-tb"
       id="path647" />
  </g>
  <metadata
     id="metadata734">
    <rdf:RDF
       xmlns="http://web.resource.org/cc/"
       xmlns:dc="http://purl.org/dc/elements/1.1/"
       xmlns:rdf="http://www.w3.org/1999/02/22-rdf-syntax-ns#">
      <Work
         rdf:about="">
        <dc:title>help-books-aj.svg</dc:title>
        <dc:description />
        <dc:subject>
          <rdf:Bag>
            <rdf:li>information</rdf:li>
            <rdf:li>question</rdf:li>
            <rdf:li />
            <rdf:li>reference</rdf:li>
            <rdf:li>help</rdf:li>
            <rdf:li>11</rdf:li>
            <rdf:li>book</rdf:li>
            <rdf:li>books</rdf:li>
            <rdf:li>education</rdf:li>
            <rdf:li>info</rdf:li>
          </rdf:Bag>
        </dc:subject>
        <dc:publisher>
          <Agent
             rdf:about="http://www.openclipart.org">
            <dc:title>AJ Ashton</dc:title>
          </Agent>
        </dc:publisher>
        <dc:creator>
          <Agent
             rdf:about="">
            <dc:title>AJ Ashton</dc:title>
          </Agent>
        </dc:creator>
        <dc:rights>
          <Agent
             rdf:about="">
            <dc:title>AJ Ashton</dc:title>
          </Agent>
        </dc:rights>
        <dc:date />
        <dc:format>image/svg+xml</dc:format>
        <dc:type
           rdf:resource="http://purl.org/dc/dcmitype/StillImage" />
        <license
           rdf:resource="Public Domain">
          <dc:date />
        </license>
        <dc:language>en</dc:language>
      </Work>
      <License
         rdf:about="Public Domain">
        <permits
           rdf:resource="http://web.resource.org/cc/Reproduction" />
        <permits
           rdf:resource="http://web.resource.org/cc/Distribution" />
        <permits
           rdf:resource="http://web.resource.org/cc/DerivativeWorks" />
      </License>
    </rdf:RDF>
  </metadata>
</svg>
