/* XPM */
static char *bibus[] = {
/* columns rows colors chars-per-pixel */
"32 32 257 2",
"   c #000300030000",
".  c #0A0A045A0000",
"X  c gray3",
"o  c #12920C8C0000",
"O  c #1D1D10100000",
"+  c #141418181919",
"@  c #181837370D0D",
"#  c #222214140000",
"$  c #292916960000",
"%  c #2A2A1A700000",
"&  c #26263AFB15D6",
"*  c #32DD22CD0000",
"=  c #3B3B31311010",
"-  c #34B432B30989",
";  c gray18",
":  c #22A335B63B3B",
">  c #343435353535",
",  c #3BE63D3D3D3D",
"<  c #39393F3F2B2B",
"1  c #2B2B3C3C4444",
"2  c #3E3E41410F0F",
"3  c #31DC4C4C16C1",
"4  c #3BFC45452A2A",
"5  c #3ABB4A4A2D2D",
"6  c #3A3A62B82222",
"7  c #3D3D6DEE2323",
"8  c #3B3B7D2721CC",
"9  c #29AA44444CCD",
"0  c #297F46F15555",
"q  c #383850505C5C",
"w  c #35B6545463E4",
"e  c #313157D872F3",
"r  c #3F3F64647676",
"t  c #469C29D40000",
"y  c #4747388E095F",
"u  c #51D138B91919",
"i  c #51513333085E",
"p  c #74F53EBF0000",
"a  c #4BF641970D0D",
"s  c #44C558581C1C",
"d  c #52D24BCC1919",
"f  c #449A474723CE",
"g  c #4CA259032D2D",
"h  c #489E56562A2A",
"j  c #46464E4E3636",
"k  c #4B4B69E92D2D",
"l  c #4F4F6F6F3131",
"z  c #47C878F827A8",
"x  c #56D7767630B0",
"c  c #686847470808",
"v  c #7D7D45450101",
"b  c #561659995A1A",
"n  c #464652524141",
"m  c #45455D5D6262",
"M  c #57576B6B4747",
"N  c #4C4C66E770F0",
"B  c #62E365E565E5",
"V  c #68E8727277F8",
"C  c #777779797979",
"Z  c #35356A6A9393",
"A  c #3C3C74749B9B",
"S  c #38B870F08A8A",
"D  c #25D07979BB65",
"F  c #24247373A3A3",
"G  c #21217B7BC4C4",
"H  c #43C47F7F8807",
"J  c #595977378848",
"K  c #4BF675758F8F",
"L  c #47477C7CA2A2",
"P  c #6F6F7D7D8585",
"I  c #2A2AEDED7A7A",
"U  c #1E1EF5F54F4F",
"Y  c #5D5DB66035E0",
"T  c #5A5AA9A93535",
"R  c #666684843F3F",
"E  c #6AC0B60B3E3E",
"W  c #67E8BB7B3BBC",
"Q  c #6161AAAA3838",
"!  c #4E4E8E8E2D2D",
"~  c #4D4D88885D5D",
"^  c #4BCC868669E9",
"/  c #70F08B0B4646",
"(  c #73739F9F5F5F",
")  c #74748D8D4A4A",
"_  c #6F6FAEAE4141",
"`  c #6F6FBFBF4040",
"'  c #7CFCB9384C4C",
"]  c #7777AB2B4FD0",
"[  c #6D6D96966F6F",
"{  c #4545ECEC6363",
"}  c #750EC28F43AA",
"|  c #7B25C46E4747",
" . c #7DBDC7474909",
".. c #7F7FC8C84A4A",
"X. c #7C7CF3F36666",
"o. c #36368181BABA",
"O. c #2B2B8504C9C9",
"+. c #2A2A8B0BD7D7",
"@. c #3B3B8989C444",
"#. c #38788B4BCACA",
"$. c #3BE696ECDDDD",
"%. c #34348E8ED4D4",
"&. c #3CBD9999E1E1",
"*. c #1293F6F6F1F1",
"=. c #2929EEEEE8E8",
"-. c #5E5E83029615",
";. c #5B5B9494BABA",
":. c #4DCE8908A8A8",
">. c #682885C59615",
",. c #7E7E81818181",
"<. c #797987078C8C",
"1. c #747495959797",
"2. c #676798CBB71D",
"3. c #70F19797ACEC",
"4. c #7777BABA8787",
"5. c #4A4A9A9AD5D5",
"6. c #53539741C71C",
"7. c #48489292CA4A",
"8. c #45459D9DE0E0",
"9. c #5D5DA0A0CFCF",
"0. c #58D8A3A3DA5A",
"q. c #4A6FA27DE49B",
"w. c #4747A0A0E3E3",
"e. c #5555AA10E7B4",
"r. c #5B9BAD6DE928",
"t. c #5555A953E690",
"y. c #6812A3F9CA1F",
"u. c #6B6BADADD959",
"i. c #76CCAC01CC21",
"p. c #7272B837D04F",
"a. c #63B9B2CFEB23",
"s. c #6E3BB9ECEDED",
"d. c #6C6CB7B7EBEB",
"f. c #72F3BCFCEF2E",
"g. c #7D7DBEBEE7E7",
"h. c #6F6FD5D59C9C",
"j. c #5757CDCDC847",
"k. c #6464D0D0FFFF",
"l. c #7C7CC0C0EE6E",
"z. c #7B7BC228F123",
"x. c #5555D3D3F5F5",
"c. c #BA64090901AC",
"v. c #ACAC07070000",
"b. c #93934E4E0000",
"n. c #929257570000",
"m. c #9A1A65650000",
"M. c #8F0F7A7A0C0C",
"N. c #A3A35D5D0101",
"B. c #B6357A7A0000",
"V. c #B8B86B6B0000",
"C. c #ABAB66664D4D",
"Z. c #CC7608080000",
"A. c #DBDB09090000",
"S. c #CACA3A3A2424",
"D. c #EC6C0A0A0000",
"F. c #D9D947473333",
"G. c #CE4E7B7B0000",
"H. c #D9587C7C0000",
"J. c #D4D474740000",
"K. c #C8C86E6E0000",
"L. c #E3E37EFF0000",
"P. c #88887F7F9696",
"I. c #BFBF9F9F0000",
"U. c #B6B687870000",
"Y. c #89899B9B57D8",
"T. c #8A8AA6A65959",
"R. c #9959B7F757D8",
"E. c #8F0FB1305A5A",
"W. c #9F9FA1206868",
"Q. c #9D47A6A667BD",
"!. c #9898BBBB6666",
"~. c #AAAA9A9A6C6C",
"^. c #A2A2B1B17171",
"/. c #A2A2A2A26B6B",
"(. c #A6A6FDFD3B3B",
"). c #842EC89D4CA2",
"_. c #8B0ACDA25126",
"`. c #8484C0C05050",
"'. c #8E8ED1105313",
"]. c #9414D429562B",
"[. c #99C4D72C5A85",
"{. c #9E5ED9D95C9C",
"}. c #9717D5D55858",
"|. c #9E1ED5546262",
" X c #A2A2DBDB5F09",
".X c #A5A5C1C15D5D",
"XX c #A650DE336161",
"oX c #A9A9DFDF6363",
"OX c #A9A9C6C66161",
"+X c #AD02E1E16565",
"@X c #B332E46368E8",
"#X c #BC11E89274CA",
"$X c #8E8EF9F94F4F",
"%X c #CACA88880000",
"&X c #D8D888880000",
"*X c #D3D396960000",
"=X c #DBDBAEAE0000",
"-X c #EC6C8CCC0000",
";X c #E66582820000",
":X c #EF999BF10000",
">X c #E9E996960000",
",X c #E9E9A0A00000",
"<X c #EDEDBDBD0000",
"1X c #F0F0A0A00000",
"2X c #D1D183836565",
"3X c #C8C8FBFB1717",
"4X c #C5C5FFFF2727",
"5X c #EBEBC2410000",
"6X c #F9F9CA740000",
"7X c #C9C9EFEF4949",
"8X c #87318B8B8C8C",
"9X c #8EC192C592C5",
"0X c #912A94949494",
"qX c #96569A9A9A9A",
"wX c #9B869F859F8A",
"eX c #929297979898",
"rX c #9C9C9E9EA1A1",
"tX c #9292A9A99D9D",
"yX c #8080A9A9BFBF",
"uX c #98EEA34DA4A4",
"iX c #ACAC9B9BB1B1",
"pX c #BEBEB1B18C8C",
"aX c #ADADAEAEAEAE",
"sX c gray73",
"dX c #92929E9EC6C6",
"fX c #89F0BAEDD63C",
"gX c #8D0DAFAFC948",
"hX c #8505BEBEE0E0",
"jX c #B1B19F9FC9C9",
"kX c #A2A2AEAEDFDF",
"lX c #B7B7AAAAFFFF",
"zX c #AFAFD0D0B4B4",
"xX c #BEBECECEA7A7",
"cX c #BF3FE5E59514",
"vX c #9595C2C2D8D8",
"bX c #8B35C56FE6E6",
"nX c #8686C9C9F3F3",
"mX c #8686C948F372",
"MX c #9B9BCB75E338",
"NX c #9494C9C9E63B",
"BX c #9090CFCFF5F5",
"VX c #93D3D252F736",
"CX c #9BF1D680F84D",
"ZX c #A4A4DBDBF7C4",
"AX c #ABABE1E1FC7C",
"SX c #B4B4E726FEBE",
"DX c #DBDB9595EE6E",
"FX c #C0C0A1A1EEEE",
"GX c #CCCCE766A827",
"HX c #DB41F2F2B6E9",
"JX c #D7D7EFEFBCBC",
"KX c #E0E0F0F0BFBF",
"LX c #C0C0C2C2C3C3",
"PX c #E993F94EC7C7",
"IX c #E84EF8F8C72D",
"UX c #F979F979F979",
"YX c None",
/* pixels */
"YXYXYXYXYXYXYXYXYXYX  & 6 x / / k @ YXYXYXYXYXYXYXYXYXYXYXYXYXYX",
"YXYXYXYXYXYX. & k R ) T././.Y.] T 8 YXYXYXYXYXYXYXYXYXYXYXYXYXYX",
"YXYXYX& k / Y.T.W./.Q.E.] W W Y Y 8 YXYXYXYXYXYXYXYXYXYXYXYXYXYX",
"YXYXYX5 cXR.^.^.!.).|  .} } W W Y 8 YXYXYXYXYXYXYXYXYXYXYXYXYXYX",
"YXYXYX3 KXJXcX[.'._.)...} W Q ! z 3 .       YXYXYXYXYXYXYXYXYXYX",
"YXYXYXu pXJXGX|.'.'._.} s a i c v b.b.p i $ . . YXYXYXYXYXYXYXYX",
"YXYXYXu c.C.~.|.}.]._.| y H.N.= 3 * * K.L.J.p #   YXYXYXYXYXYXYX",
"YXYXYXu Z.c.v.E.[.].'.E.a G.y E W 7   i L.;XL.i . YXYXYXYXYXYXYX",
"YXYXYXu A.Z.c.R.[.}.].E.a n.z ` } 7   $ H.-X-XV.O   YXYXYXYXYXYX",
"YXYXYXu D.A.Z..X X{.]._.x 6 E ).} 6   # G.-X-X&X%   YXYXYXYXYXYX",
"YXYXYXf F.D.A..XoX{.[.].'.)._... .6   % ;X:X>XG.#   YXYXYXYXYXYX",
"YXYXYXh KX2XS.OX+XXX{.[.].'._.).| 6 . - >X:X:Xm.o YXYXYXYXYXYXYX",
"YXYXYXh IXIXHX#X+XoX{.{.}...^ S ~ @ $ B.1X1X*X*   YXYXYXYXYXYXYX",
"YXYXYXg IXIXHX#X@X+X+X] ^ F G D 0 = B.>X>Xm.*     YXYXYXYXYXYXYX",
"YXYXYXg IXPXHX#X@X] H O.G O.+.+.4 *Xc = % o > B >   YXYXYXYXYXYX",
"YXYXYXg PXPXGX[ -.%.$.$.%.O.&.%.4 *X9 D Z P wXwXwXwX0X, YXYXYXYX",
"YXYXYXg xX1.:.q.q.q.w.w.w.w.#.#.< U.0 &.#.o.J 9XrXrXwXwXV . YXYX",
"YXYXYXe 7.r.r.r.e.e.e.e.q.e.q.5.w 9 A q.t.o.5.S eXwXwXwXwXC   YX",
"YXYXYXe 0.d.a.a.a.a.a.a.a.a.r.N f d 4 A 5.0.7.Z 9XwXwXwXwXwXb YX",
"YXYXYXK 6.y.z.f.f.s.s.s.s.d.6.f <X<X=X5 6.6.a.L 9XrXwXwXwXwXeX+ ",
"YXYXYX0 y.2.y.z.z.z.z.z.z.f.;.M.6X6X5Xf u.s.d.K 0XwXwXwXwXwXwXB ",
"YXYX  : 2.i.2.i.bXnXnXnXnXnXg.j *X5XM.m l.u.:.V qXwXwXwXwXwXwX,.",
"YXYX    w -.2.VXfXfXVXVXBXBXfX2.N n -.p.2.-.tXUXaXwXwXwXwXwXwX9X",
"YX      YX+ >.NXCXNXbXCXNXfXbXCXVXbXi.>.8XwXsXUXLXwXwXwXwXwXwX0X",
"YXYXYX      1 >.vXSXZXfXvXSXSXZXvX>.<.wXwXwX0XaXh.h.kXjXiXuXwX8X",
"YXYXYX    YXYX+ J fXSXSXSXSXMX3.<.qXwXwXwXwXwXwXj.X.{ zXlXDXDXP.",
"YXYXYX  YXYXYXYX  J gXAXMXyX-.b wXwXwXwXwXwXwXwXuX*.$XU 7XfXFX> ",
"YXYXYXYXYXYXYXYXYXYXN 3.-.q YX  9XwXwXwXwXwXwXwXrXp.*.(.U 3X4.. ",
"YXYXYXYXYXYXYXYXYXYXYX: YXYXYXYX> qXwXwXrXrXwXwXrXrXx.=.4XI + YX",
"YXYXYXYXYXYXYXYXYXYXYXYXYXYXYXYXYXB wXwXrXwXwXwXrXrXgXk.j.M YXYX",
"YXYXYXYXYXYXYXYXYXYXYXYXYXYXYXYXYXYX; 9XuXwXwXwXrXrXrXdXX YXYXYX",
"YXYXYXYXYXYXYXYXYXYXYXYXYXYXYXYXYXYXYX  b C 9X0X9XC 5   YXYXYXYX"
};
